NONLOOPING Here is place for one line comment
piano/piano_c#0_c0_d#0.wav,10,c0,20,0,0,1051402, 0, 5000
piano/piano_f0_e0_g0.wav,f0,e0,g0,0,0,1149567, 0, 5000
piano/piano_a0_g#0_b0.wav,a0,40,b0,0,0,1599981, 0, 5000
piano/piano_c#1_c1_d#1.wav,11,c1,21, 0,0,1182431, 0, 5000
piano/piano_f1_e1_g1.wav,f1,e1,g1,0,0,535018, 0, 5000
piano/piano_a1_g#1_b1.wav,a1,41,b1,0,0,617102, 0, 5000
piano/piano_c#2_c2_d#2.wav,12,c2,22, 0,0,670689, 0, 5000
piano/piano_f2_e2_g2.wav,f2,e2,g2,0,0,396032, 0, 5000
piano/piano_a2_g#2_b2.wav,a2,42,b2,0,0,375549, 0, 5000
piano/piano_c#3_c3_d#3.wav,13,c3,23, 0,0,264784, 0, 5000
piano/piano_f3_e3_g3.wav,f3,e3,g3,0,0,314188, 0, 5000
piano/piano_a3_g#3_b3.wav,a3,43,b3,0,0,358975, 0, 5000
piano/piano_c#4_c4_d#4.wav,14,c4,24, 0,0,166319, 0, 5000
piano/piano_f4_e4_g4.wav,f4,e4,g4,0,0,133562, 0, 5000
piano/piano_a4_g#4_b4.wav,a4,44,b4,0,0,162311, 0, 5000
piano/piano_c#5_c5_d#5.wav,15,c5,25, 0,0,97022, 0, 5000
piano/piano_f5_e5_g5.wav,f5,e5,g5,0,0,113336, 0, 5000
piano/piano_a5_g#5_b5.wav,a5,45,b5,0,0,105058, 0, 5000
piano/piano_c#6_c6_d#6.wav,16,c6,26, 0,0,92691, 0, 5000
piano/piano_f6_e6_g6.wav,f6,e6,g6,0,0,84657, 0, 5000
piano/piano_a6_g#6_c7.wav,a6,46,c7,0,0,80303, 0, 5000
